{
    "requestType": "SupportedProfiles",
    "motionProfiles": [
        {
            "key": "test",
            "name": "test",
            "defaultProfile": true,
            "parameters": [
                {
                    "key": "V",
                    "name": "V",
                    "required": true
                },
                {
                    "key": "A",
                    "name": "A",
                    "required": true
                },
                {
                    "key": "J",
                    "name": "J",
                    "required": true
                }
            ]
        }
    ]
}